<svg version="1.1" xmlns="http://www.w3.org/2000/svg" viewBox="105.5 227.5 400 337.1">
<g>
	<g id="XMLID_97_">
		<path id="XMLID_98_" d="M505,432.3c-6-66.5-67.9-115.5-133.8-105.4c-10.4,1.6-20.5,4.8-31.3,7.4c0-14.5-0.2-29.1,0.1-43.8
			c0.2-13.9-5.3-25.1-15.3-34.2c-10.2-9.3-22.4-15.1-35.4-19.2c-35.9-11.1-72.4-12-109.1-5.8c-19.8,3.3-38.9,9.1-55.2,21.5
			c-12.7,9.7-19.9,22.3-19.5,38.9c0.4,17.4,0,34.8,0.1,52.3c0,3.3,0.3,6.7,1,10c3.6,16.2,14.9,25.9,28.7,33.1
			c3.9,2.1,5.3,4.3,5.3,8.7c-0.2,34.4-0.1,68.8-0.1,103.2c0,13.4,4,25.3,14.3,34c6.9,5.8,14.4,11.7,22.6,15
			c49.4,20.1,99.7,19.8,150.3,4.5c4.5-1.4,8.1-1.6,12.6,0.4c22.3,10.1,45.6,12.9,69.5,8.1C470.8,548.9,510.6,494.8,505,432.3z
			 M139.1,276.5c7-5.5,15.1-10.6,23.6-13.1c40.7-12.4,81.7-12.6,122.2,0.8c7.4,2.4,14.6,6.7,20.7,11.6c10.6,8.4,9.9,17.8-1.3,25.6
			c-12,8.3-25.8,11.6-39.9,13.6c-13.8,1.9-27.7,2.7-41.6,4c-21.7-0.7-43.1-2.4-63.7-9.2c-6.6-2.2-13.2-5.3-18.9-9.3
			C130.2,293.3,129.6,284,139.1,276.5z M139.5,357.9c-5.4-3.1-7.7-8.8-7.4-15.5c0.3-7.1,0.1-14.3,0.1-21
			c60.7,23.2,120.5,23.2,180.9,0.1c0,8.3,1.2,17.6-0.5,26.3c-1,4.9-6,9.8-10.4,13c-11.6,8.3-25.3,11.6-39.1,13.9
			c-32.3,5.3-64.6,5.2-96.2-3.8C157.3,368.2,148.3,362.9,139.5,357.9z M167.9,399.2c36.6,7.5,73.2,7.6,110-0.1
			c-2.7,10.3-5.2,19.8-7.8,29.8c-27.7,0.9-55.2-0.2-81.6-10c-4.9-1.8-9.8-4.3-13.9-7.6c-3.3-2.6-5.4-6.9-8.1-10.4
			C166.9,400.4,167.4,399.8,167.9,399.2z M167,431.2c16.6,9.2,33.2,13.8,50.5,15.5c17.1,1.7,34.4,2.4,51.8,3.6
			c2,10.6,4.1,21.7,6.4,33.7c-12.3,0-25,1.2-37.3-0.3c-16.4-1.9-32.6-5.5-48.8-9.2c-5.4-1.2-10.4-4.8-15.2-7.9
			c-5.2-3.3-7.5-8.5-7.4-14.9C167.1,445.3,167,438.8,167,431.2z M303.8,531.5c-37.2,7.4-74,7.2-110.2-5.5c-1.9-0.7-3.7-1.4-5.5-2.3
			c-19.1-9.2-22.2-14.6-20.9-36.1c0.4-0.1,0.9-0.4,1.2-0.3c35.2,17.8,73,18.3,111.1,16.5c4.3-0.2,6.6,0.9,9.1,4.6
			c5.1,7.7,11.2,14.8,16.9,22.3C305,530.9,304.4,531.4,303.8,531.5z M387.9,536.2c-50.5,0-91.3-41-91.3-91.8s40.9-92.1,91.2-92.1
			s91.4,41.3,91.6,92C479.5,494.6,438.1,536.2,387.9,536.2z M412.2,399.5c-11.1,0.6-19.4,6.8-22.7,18.4c-2.3,8.1-3,16.6-4.6,26.3
			c1.8,8.5,2.8,18.3,6,27.5c3.7,10.6,12.3,16,23.7,16.1c11.2,0.1,20.3-4.2,24.3-15c7.2-19,7.4-38.5-0.1-57.5
			C434.1,403.4,425.1,398.8,412.2,399.5z M427.3,464.9c-1.5,6.2-5.2,10.9-12.4,11c-7.3,0.1-11-4.5-12.5-10.8
			c-3.6-14.5-3.6-29.2,0.2-43.7c1.5-5.8,5.2-9.8,11.8-10c6.8-0.2,11.1,3.7,12.5,9.9c1.8,7.8,2.5,15.8,3.6,22.9
			C429.4,451.7,428.9,458.4,427.3,464.9z M330.6,420.6c2.5,3.2,4.7,5.9,7,8.8c5.3-4.2,10.2-8,16.1-12.7v69.6H367v-85.9
			c-4.5,0.5-9.5-0.4-12.5,1.6C346.3,407.5,338.8,414.1,330.6,420.6z"/>
	</g>
</g>
</svg>
