<?xml version="1.0" encoding="utf-8"?>
<!-- Generator: Adobe Illustrator 19.0.0, SVG Export Plug-In . SVG Version: 6.00 Build 0)  -->
<svg version="1.1" id="Layer_1" xmlns="http://www.w3.org/2000/svg" xmlns:xlink="http://www.w3.org/1999/xlink" x="0px" y="0px"
	 viewBox="144 192.5 324 407" style="enable-background:new 144 192.5 324 407;" xml:space="preserve">
<path d="M397.1,486.5v102.3c0,4-2,7.7-5.4,9.9c-1.9,1.2-4.2,1.9-6.4,1.9c-1.6,0-3.3-0.3-4.8-1l-74-33.1l-74,33.1
	c-3.7,1.6-7.9,1.3-11.3-0.8c-3.4-2.2-5.4-5.9-5.4-9.9V486.5c-42.8-29-70.9-77.8-70.9-133.1c0-88.7,72.5-160.9,161.5-160.9
	S468,264.6,468,353.3C468,408.6,439.9,457.5,397.1,486.5z M239.5,570.6l62.1-27.8c1.5-0.7,3.2-1,4.8-1c1.7,0,3.3,0.3,4.9,1
	l62.1,27.8l0,0v-70.8c-5.9,2.7-12,5-18.3,7c-0.4,0.1-0.7,0.2-1.1,0.3c-0.8,0.2-1.6,0.5-2.4,0.7c-0.6,0.2-1.2,0.3-1.8,0.5
	c-0.6,0.2-1.3,0.4-1.9,0.5c-0.8,0.2-1.5,0.4-2.3,0.6c-0.5,0.1-1.1,0.3-1.6,0.4c-0.9,0.2-1.7,0.4-2.6,0.6c-0.5,0.1-0.9,0.2-1.4,0.3
	c-1,0.2-1.9,0.4-2.9,0.6c-0.4,0.1-0.8,0.2-1.2,0.2c-1,0.2-2,0.4-3.1,0.5c-0.4,0.1-0.7,0.1-1.1,0.2c-1.1,0.2-2.1,0.3-3.2,0.5
	c-0.3,0-0.7,0.1-1,0.1c-1.1,0.1-2.2,0.3-3.3,0.4c-0.3,0-0.6,0.1-1,0.1c-1.1,0.1-2.2,0.2-3.3,0.3c-0.3,0-0.7,0.1-1,0.1
	c-1.1,0.1-2.2,0.2-3.2,0.2c-0.3,0-0.7,0-1,0.1c-1.1,0.1-2.2,0.1-3.3,0.1c-0.3,0-0.7,0-1,0c-1.4,0-2.8,0.1-4.3,0.1
	c-1.4,0-2.9,0-4.3-0.1c-0.3,0-0.7,0-1,0c-1.1,0-2.2-0.1-3.3-0.1c-0.3,0-0.7,0-1-0.1c-1.1-0.1-2.2-0.1-3.2-0.2c-0.3,0-0.7-0.1-1-0.1
	c-1.1-0.1-2.2-0.2-3.3-0.3c-0.3,0-0.6-0.1-1-0.1c-1.1-0.1-2.2-0.2-3.3-0.4c-0.3,0-0.7-0.1-1-0.1c-1.1-0.1-2.1-0.3-3.2-0.5
	c-0.4-0.1-0.7-0.1-1.1-0.2c-1-0.2-2.1-0.3-3.1-0.5c-0.4-0.1-0.8-0.2-1.2-0.2c-1-0.2-1.9-0.4-2.9-0.6c-0.5-0.1-0.9-0.2-1.4-0.3
	c-0.9-0.2-1.7-0.4-2.6-0.6c-0.5-0.1-1.1-0.3-1.6-0.4c-0.8-0.2-1.5-0.4-2.3-0.6c-0.6-0.2-1.3-0.3-1.9-0.5s-1.2-0.3-1.8-0.5
	c-0.8-0.2-1.6-0.5-2.4-0.7c-0.4-0.1-0.7-0.2-1.1-0.3c-6.2-2-12.3-4.3-18.3-7v70.8H239.5z M306.5,216c-76,0-137.9,61.6-137.9,137.3
	c0,60,38.9,111.2,92.9,129.8c0.5,0.2,0.9,0.3,1.4,0.5c0.7,0.2,1.4,0.5,2.2,0.7c0.8,0.3,1.7,0.5,2.5,0.8c0.6,0.2,1.2,0.4,1.8,0.5
	c1.1,0.3,2.2,0.6,3.4,0.9c0.4,0.1,0.8,0.2,1.3,0.3c1.1,0.3,2.2,0.5,3.3,0.8c0.3,0.1,0.6,0.1,0.8,0.2c1.4,0.3,2.9,0.6,4.3,0.8
	c0.1,0,0.3,0.1,0.4,0.1c1.3,0.2,2.6,0.4,3.9,0.6c0.3,0,0.6,0.1,0.9,0.1c1.4,0.2,2.8,0.4,4.2,0.5c0.1,0,0.1,0,0.2,0
	c1.5,0.2,2.9,0.3,4.4,0.4c0.3,0,0.6,0,1,0.1c1.1,0.1,2.3,0.1,3.4,0.2c0.4,0,0.8,0,1.2,0c1.4,0,2.9,0.1,4.3,0.1c1.5,0,2.9,0,4.3-0.1
	c0.4,0,0.8,0,1.2,0c1.2,0,2.3-0.1,3.4-0.2c0.3,0,0.6,0,1-0.1c1.5-0.1,3-0.2,4.4-0.4c0.1,0,0.1,0,0.2,0c1.4-0.1,2.8-0.3,4.2-0.5
	c0.3,0,0.6-0.1,0.9-0.1c1.3-0.2,2.6-0.4,3.9-0.6c0.1,0,0.3,0,0.4-0.1c1.4-0.3,2.9-0.5,4.3-0.8c0.3-0.1,0.6-0.1,0.8-0.2
	c1.1-0.2,2.2-0.5,3.3-0.8c0.4-0.1,0.8-0.2,1.3-0.3c1.1-0.3,2.3-0.6,3.4-0.9c0.6-0.2,1.2-0.3,1.8-0.5c0.8-0.2,1.7-0.5,2.5-0.8
	c0.7-0.2,1.4-0.5,2.2-0.7c0.5-0.2,0.9-0.3,1.4-0.5c54-18.6,92.9-69.8,92.9-129.8C444.4,277.6,382.5,216,306.5,216z M376.6,353.3
	l22.2,41.6c1.9,3.6,1.8,7.9-0.2,11.4s-5.8,5.7-9.8,5.9l-47.2,1.6l-25,39.9c-2.2,3.4-5.9,5.5-10,5.5s-7.9-2.1-10-5.5l-25-39.9
	l-47.2-1.6c-4.1-0.1-7.8-2.4-9.8-5.9s-2.1-7.8-0.2-11.4l22.2-41.6l-22.2-41.6c-1.9-3.6-1.8-7.9,0.2-11.4s5.8-5.7,9.8-5.9l47.2-1.6
	l25-39.9c2.2-3.4,5.9-5.5,10-5.5s7.9,2.1,10,5.5l25,39.9l47.2,1.6c4.1,0.1,7.8,2.4,9.8,5.9s2.1,7.8,0.2,11.4L376.6,353.3z
	 M352.8,347.8l16.3-30.4l-34.6-1.2c-3.9-0.1-7.5-2.2-9.6-5.5l-18.3-29.3l-18.3,29.3c-2.1,3.3-5.7,5.4-9.6,5.5l-34.6,1.2l16.3,30.4
	c1.8,3.5,1.8,7.6,0,11.1l-16.3,30.4l34.6,1.2c3.9,0.1,7.5,2.2,9.6,5.5l18.3,29.3l18.3-29.3c2.1-3.3,5.7-5.4,9.6-5.5l34.6-1.2
	l-16.3-30.4C351,355.4,351,351.3,352.8,347.8z"/>
</svg>
