<?xml version="1.0" encoding="utf-8"?>
<!-- Generator: Adobe Illustrator 16.0.0, SVG Export Plug-In . SVG Version: 6.00 Build 0)  -->
<!DOCTYPE svg PUBLIC "-//W3C//DTD SVG 1.1//EN" "http://www.w3.org/Graphics/SVG/1.1/DTD/svg11.dtd">
<svg version="1.1" id="Layer_1" xmlns="http://www.w3.org/2000/svg" xmlns:xlink="http://www.w3.org/1999/xlink" x="0px" y="0px"
	 width="1600px" height="626px" viewBox="0 0 1600 626" enable-background="new 0 0 1600 626" xml:space="preserve">
<rect fill="#39696D" width="1600" height="626"/>
<g>
	<g transform="rotate(0 50 50)">
		<path fill="#CCE9EB" d="M801,261L801,261c3.313,0,6,4.298,6,9.6v4.801c0,5.302-2.687,9.6-6,9.6l0,0c-3.313,0-6-4.298-6-9.6V270.6
			C795,265.298,797.687,261,801,261z		">
<animate  fill="remove" repeatCount="indefinite" keyTimes="0;1" begin="-0.9166666666666666s" attributeName="opacity" accumulate="none" dur="1s" additive="replace" restart="always" calcMode="linear" values="1;0" style="animation-play-state: running; animation-delay: 0s;">
				</animate>
		</path>
	</g>
	<g transform="rotate(30 50 50)">
		<path fill="#CCE9EB" d="M831.885-149.735L831.885-149.735c3.313,0,6,4.298,6,9.6l0,4.8c0.001,5.302-2.687,9.6-6,9.6l0,0
			c-3.313,0-6-4.298-6-9.6l0-4.8C825.885-145.438,828.572-149.736,831.885-149.735z		">
<animate  fill="remove" repeatCount="indefinite" keyTimes="0;1" begin="-0.8333333333333334s" attributeName="opacity" accumulate="none" dur="1s" additive="replace" restart="always" calcMode="linear" values="1;0" style="animation-play-state: running; animation-delay: 0s;">
				</animate>
		</path>
	</g>
	<g transform="rotate(60 50 50)">
		<path fill="#CCE9EB" d="M653.265-520.885L653.265-520.885c3.314,0,5.999,4.298,6,9.6l0,4.8c-0.001,5.302-2.686,9.599-6.001,9.6
			l0,0c-3.314-0.001-5.999-4.298-6-9.6l0-4.8C647.265-516.586,649.951-520.886,653.265-520.885z		">
<animate  fill="remove" repeatCount="indefinite" keyTimes="0;1" begin="-0.75s" attributeName="opacity" accumulate="none" dur="1s" additive="replace" restart="always" calcMode="linear" values="1;0" style="animation-play-state: running; animation-delay: 0s;">
				</animate>
		</path>
	</g>
	<g transform="rotate(90 50 50)">
		<path fill="#CCE9EB" d="M313-753L313-753c3.313,0,6,4.298,6,9.6v4.801c0,5.302-2.687,9.6-6,9.6l0,0c-3.313,0-6-4.298-6-9.6v-4.801
			C307-748.702,309.687-753,313-753z		">
<animate  fill="remove" repeatCount="indefinite" keyTimes="0;1" begin="-0.6666666666666666s" attributeName="opacity" accumulate="none" dur="1s" additive="replace" restart="always" calcMode="linear" values="1;0" style="animation-play-state: running; animation-delay: 0s;">
				</animate>
		</path>
	</g>
	<g transform="rotate(120 50 50)">
		<path fill="#CCE9EB" d="M-97.735-783.885L-97.735-783.885c3.314-0.001,6,4.299,6,9.6l0,4.8c0,5.302-2.686,9.6-6,9.6l0,0
			c-3.315-0.001-6-4.299-6.001-9.6l0-4.8C-103.735-779.587-101.05-783.885-97.735-783.885z		">
<animate  fill="remove" repeatCount="indefinite" keyTimes="0;1" begin="-0.5833333333333334s" attributeName="opacity" accumulate="none" dur="1s" additive="replace" restart="always" calcMode="linear" values="1;0" style="animation-play-state: running; animation-delay: 0s;">
				</animate>
		</path>
	</g>
	<g transform="rotate(150 50 50)">
		<path fill="#CCE9EB" d="M-468.885-605.265L-468.885-605.265c3.313-0.001,6.001,4.298,6,9.6l0,4.8c-0.001,5.302-2.687,9.6-6,9.599
			l0,0c-3.313,0.001-6.001-4.298-6-9.6l0-4.8C-474.885-600.967-472.198-605.265-468.885-605.265z		">
<animate  fill="remove" repeatCount="indefinite" keyTimes="0;1" begin="-0.5s" attributeName="opacity" accumulate="none" dur="1s" additive="replace" restart="always" calcMode="linear" values="1;0" style="animation-play-state: running; animation-delay: 0s;">
				</animate>
		</path>
	</g>
	<g transform="rotate(180 50 50)">
		<path fill="#CCE9EB" d="M-701-265L-701-265c3.313,0,6,4.298,6,9.6v4.801c0,5.302-2.687,9.6-6,9.6l0,0c-3.313,0-6-4.298-6-9.6
			v-4.801C-707-260.702-704.313-265-701-265z		">
<animate  fill="remove" repeatCount="indefinite" keyTimes="0;1" begin="-0.4166666666666667s" attributeName="opacity" accumulate="none" dur="1s" additive="replace" restart="always" calcMode="linear" values="1;0" style="animation-play-state: running; animation-delay: 0s;">
				</animate>
		</path>
	</g>
	<g transform="rotate(210 50 50)">
		<path fill="#CCE9EB" d="M-731.885,145.736L-731.885,145.736c3.313,0,6,4.298,6,9.6l0,4.8c0,5.302-2.686,9.6-6,9.6l0,0
			c-3.313,0-6-4.298-6-9.6l0-4.8C-737.886,150.033-735.199,145.735-731.885,145.736z		">
<animate  fill="remove" repeatCount="indefinite" keyTimes="0;1" begin="-0.3333333333333333s" attributeName="opacity" accumulate="none" dur="1s" additive="replace" restart="always" calcMode="linear" values="1;0" style="animation-play-state: running; animation-delay: 0s;">
				</animate>
		</path>
	</g>
	<g transform="rotate(240 50 50)">
		<path fill="#CCE9EB" d="M-553.265,516.885L-553.265,516.885c3.314,0,6,4.298,6,9.6l0,4.8c-0.001,5.302-2.686,9.6-6,9.6l0,0
			c-3.314,0-6-4.298-6-9.6l0-4.8C-559.265,521.183-556.579,516.885-553.265,516.885z		">
<animate  fill="remove" repeatCount="indefinite" keyTimes="0;1" begin="-0.25s" attributeName="opacity" accumulate="none" dur="1s" additive="replace" restart="always" calcMode="linear" values="1;0" style="animation-play-state: running; animation-delay: 0s;">
				</animate>
		</path>
	</g>
	<g transform="rotate(270 50 50)">
		<path fill="#CCE9EB" d="M-213,749L-213,749c3.313,0,6,4.298,6,9.6v4.8c0,5.302-2.687,9.6-6,9.6l0,0c-3.313,0-6-4.298-6-9.6v-4.8
			C-219,753.298-216.313,749-213,749z		">
<animate  fill="remove" repeatCount="indefinite" keyTimes="0;1" begin="-0.16666666666666666s" attributeName="opacity" accumulate="none" dur="1s" additive="replace" restart="always" calcMode="linear" values="1;0" style="animation-play-state: running; animation-delay: 0s;">
				</animate>
		</path>
	</g>
	<g transform="rotate(300 50 50)">
		<path fill="#CCE9EB" d="M197.736,779.885L197.736,779.885c3.314,0,6,4.298,6,9.599l0,4.8c0,5.302-2.686,9.6-6,9.6l0,0
			c-3.314,0-6-4.298-6-9.6l0-4.8C191.736,784.183,194.421,779.885,197.736,779.885z		">
<animate  fill="remove" repeatCount="indefinite" keyTimes="0;1" begin="-0.08333333333333333s" attributeName="opacity" accumulate="none" dur="1s" additive="replace" restart="always" calcMode="linear" values="1;0" style="animation-play-state: running; animation-delay: 0s;">
				</animate>
		</path>
	</g>
	<g transform="rotate(330 50 50)">
		<path fill="#CCE9EB" d="M568.885,601.265L568.885,601.265c3.314,0,6,4.298,6,9.6l0,4.8c0,5.302-2.686,9.6-6,9.6l0,0
			c-3.314,0-6-4.298-6-9.6l0-4.8C562.886,605.563,565.572,601.265,568.885,601.265z		">
<animate  fill="remove" repeatCount="indefinite" keyTimes="0;1" begin="0s" attributeName="opacity" accumulate="none" dur="1s" additive="replace" restart="always" calcMode="linear" values="1;0" style="animation-play-state: running; animation-delay: 0s;">
				</animate>
		</path>
	</g>
</g>
</svg>
